%YAML 1.1
%TAG !u! tag:unity3d.com,2011:
--- !u!1045 &1
EditorBuildSettings:
  m_ObjectHideFlags: 0
  serializedVersion: 2
  m_Scenes:
  - enabled: 1
    path: Assets/Scenes/Launcher.unity
    guid: 33b7b9751aa407d43abf20187d8cf39c
  - enabled: 1
    path: Assets/Scenes/Main 1.unity
    guid: 46966ccdd14046a4e85aa994b5bdc228
  - enabled: 1
    path: Assets/Scenes/Main 2.unity
    guid: 4edd07d1baeb5ce4589062de3299820b
  m_configObjects: {}
